Tidymodeling
…
Is it ethical to use this variable? (Or even legal?)

Will this variable be available at prediction time?

Does this variable contribute to explainability?

re: ethics – what issues might arise from releasing the true lat and lon? In reality, these lat and lon are slightly jittered to help ensure trust with landowners who allow surveyers to come take measurements.

Data on forests in Washington

library(tidymodels)
library(forested)

forested
#> # A tibble: 7,107 × 19
#>    forested  year elevation eastness northness roughness tree_no_tree dew_temp
#>    <fct>    <dbl>     <dbl>    <dbl>     <dbl>     <dbl> <fct>           <dbl>
#>  1 Yes       2005       881       90        43        63 Tree             0.04
#>  2 Yes       2005       113      -25        96        30 Tree             6.4 
#>  3 No        2005       164      -84        53        13 Tree             6.06
#>  4 Yes       2005       299       93        34         6 No tree          4.43
#>  5 Yes       2005       806       47       -88        35 Tree             1.06
#>  6 Yes       2005       736      -27       -96        53 Tree             1.35
#>  7 Yes       2005       636      -48        87         3 No tree          1.42
#>  8 Yes       2005       224      -65       -75         9 Tree             6.39
#>  9 Yes       2005        52      -62        78        42 Tree             6.5 
#> 10 Yes       2005      2240      -67       -74        99 No tree         -5.63
#> # ℹ 7,097 more rows
#> # ℹ 11 more variables: precip_annual <dbl>, temp_annual_mean <dbl>,
#> #   temp_annual_min <dbl>, temp_annual_max <dbl>, temp_january_min <dbl>,
#> #   vapor_min <dbl>, vapor_max <dbl>, canopy_cover <dbl>, lon <dbl>, lat <dbl>,
#> #   land_type <fct>
…
forested_train
#> # A tibble: 5,330 × 19
#>    forested  year elevation eastness northness roughness tree_no_tree dew_temp
#>    <fct>    <dbl>     <dbl>    <dbl>     <dbl>     <dbl> <fct>           <dbl>
#>  1 No        2016       464       -5       -99         7 No tree          1.71
#>  2 Yes       2016       166       92        37         7 Tree             6   
#>  3 No        2016       644      -85       -52        24 No tree          0.67
#>  4 Yes       2014      1285        4        99        79 Tree             1.91
#>  5 Yes       2013       822       87        48        68 Tree             1.95
#>  6 Yes       2017         3        6       -99         5 Tree             7.93
#>  7 Yes       2014      2041      -95        28        49 Tree            -4.22
#>  8 Yes       2015      1009       -8        99        72 Tree             1.72
#>  9 No        2017       436      -98        19        10 No tree          1.8 
#> 10 No        2018       775       63        76       103 No tree          0.62
#> # ℹ 5,320 more rows
#> # ℹ 11 more variables: precip_annual <dbl>, temp_annual_mean <dbl>,
#> #   temp_annual_min <dbl>, temp_annual_max <dbl>, temp_january_min <dbl>,
#> #   vapor_min <dbl>, vapor_max <dbl>, canopy_cover <dbl>, lon <dbl>, lat <dbl>,
#> #   land_type <fct>
…
Stress that fitting a model on the entire training set was only for illustrating how to fit a model

Evaluate the model

Open Worksheet 3 📄

Looking at predictions

augment(forested_fit, new_data = forested_train)
#> # A tibble: 5,685 × 22
#>    .pred_class .pred_Yes .pred_No forested  year elevation eastness northness
#>    <fct>           <dbl>    <dbl> <fct>    <dbl>     <dbl>    <dbl>     <dbl>
#>  1 No             0.0114   0.989  No        2016       464       -5       -99
#>  2 Yes            0.636    0.364  Yes       2016       166       92        37
#>  3 No             0.0114   0.989  No        2016       644      -85       -52
#>  4 Yes            0.977    0.0226 Yes       2014      1285        4        99
#>  5 Yes            0.977    0.0226 Yes       2013       822       87        48
#>  6 Yes            0.808    0.192  Yes       2017         3        6       -99
#>  7 Yes            0.977    0.0226 Yes       2014      2041      -95        28
#>  8 Yes            0.977    0.0226 Yes       2015      1009       -8        99
#>  9 No             0.0114   0.989  No        2017       436      -98        19
#> 10 No             0.0114   0.989  No        2018       775       63        76
#> # ℹ 5,675 more rows
#> # ℹ 14 more variables: roughness <dbl>, tree_no_tree <fct>, dew_temp <dbl>,
#> #   precip_annual <dbl>, temp_annual_mean <dbl>, temp_annual_min <dbl>,
#> #   temp_annual_max <dbl>, temp_january_min <dbl>, vapor_min <dbl>,
#> #   vapor_max <dbl>, canopy_cover <dbl>, lon <dbl>, lat <dbl>, land_type <fct>
…
forested_fit %>%
  augment(forested_train)
#> # A tibble: 5,685 × 22
#>    .pred_class .pred_Yes .pred_No forested  year elevation eastness northness
#>    <fct>           <dbl>    <dbl> <fct>    <dbl>     <dbl>    <dbl>     <dbl>
#>  1 No             0.0114   0.989  No        2016       464       -5       -99
#>  2 Yes            0.636    0.364  Yes       2016       166       92        37
#>  3 No             0.0114   0.989  No        2016       644      -85       -52
#>  4 Yes            0.977    0.0226 Yes       2014      1285        4        99
#>  5 Yes            0.977    0.0226 Yes       2013       822       87        48
#>  6 Yes            0.808    0.192  Yes       2017         3        6       -99
#>  7 Yes            0.977    0.0226 Yes       2014      2041      -95        28
#>  8 Yes            0.977    0.0226 Yes       2015      1009       -8        99
#>  9 No             0.0114   0.989  No        2017       436      -98        19
#> 10 No             0.0114   0.989  No        2018       775       63        76
#> # ℹ 5,675 more rows
#> # ℹ 14 more variables: roughness <dbl>, tree_no_tree <fct>, dew_temp <dbl>,
#> #   precip_annual <dbl>, temp_annual_mean <dbl>, temp_annual_min <dbl>,
#> #   temp_annual_max <dbl>, temp_january_min <dbl>, vapor_min <dbl>,
#> #   vapor_max <dbl>, canopy_cover <dbl>, lon <dbl>, lat <dbl>, land_type <fct>
…
# Save the assessment set results
forested_preds <- collect_predictions(forested_res)
forested_preds
#> # A tibble: 5,685 × 7
#>    .pred_class .pred_Yes .pred_No id      .row forested .config             
#>    <fct>           <dbl>    <dbl> <chr>  <int> <fct>    <chr>               
#>  1 Yes           0.5       0.5    Fold01     2 Yes      Preprocessor1_Model1
#>  2 Yes           0.982     0.0178 Fold01     5 Yes      Preprocessor1_Model1
#>  3 No            0.00790   0.992  Fold01     9 No       Preprocessor1_Model1
#>  4 No            0.4       0.6    Fold01    14 No       Preprocessor1_Model1
#>  5 Yes           0.870     0.130  Fold01    18 Yes      Preprocessor1_Model1
#>  6 Yes           0.982     0.0178 Fold01    59 Yes      Preprocessor1_Model1
#>  7 No            0.00790   0.992  Fold01    67 No       Preprocessor1_Model1
#>  8 Yes           0.982     0.0178 Fold01    89 Yes      Preprocessor1_Model1
#>  9 No            0.00790   0.992  Fold01    94 No       Preprocessor1_Model1
#> 10 Yes           0.982     0.0178 Fold01   111 Yes      Preprocessor1_Model1
#> # ℹ 5,675 more rows
…
forested_preds %>% 
  group_by(id) %>%
  forested_metrics(truth = forested, estimate = .pred_class)
#> # A tibble: 30 × 4
#>    id     .metric  .estimator .estimate
#>    <chr>  <chr>    <chr>          <dbl>
#>  1 Fold01 accuracy binary         0.896
#>  2 Fold02 accuracy binary         0.859
#>  3 Fold03 accuracy binary         0.868
#>  4 Fold04 accuracy binary         0.921
#>  5 Fold05 accuracy binary         0.900
#>  6 Fold06 accuracy binary         0.891
#>  7 Fold07 accuracy binary         0.896
#>  8 Fold08 accuracy binary         0.903
#>  9 Fold09 accuracy binary         0.896
#> 10 Fold10 accuracy binary         0.905
#> # ℹ 20 more rows
…
set.seed(3214)
bootstraps(forested_train)
#> # Bootstrap sampling 
#> # A tibble: 25 × 2
#>    splits              id         
#>    <list>              <chr>      
#>  1 <split [5685/2075]> Bootstrap01
#>  2 <split [5685/2093]> Bootstrap02
#>  3 <split [5685/2129]> Bootstrap03
#>  4 <split [5685/2093]> Bootstrap04
#>  5 <split [5685/2111]> Bootstrap05
#>  6 <split [5685/2105]> Bootstrap06
#>  7 <split [5685/2139]> Bootstrap07
#>  8 <split [5685/2079]> Bootstrap08
#>  9 <split [5685/2113]> Bootstrap09
#> 10 <split [5685/2101]> Bootstrap10
#> # ℹ 15 more rows
…
collect_predictions(final_fit)
#> # A tibble: 1,422 × 7
#>    .pred_class .pred_Yes .pred_No id                .row forested .config       
#>    <fct>           <dbl>    <dbl> <chr>            <int> <fct>    <chr>         
#>  1 Yes             0.822   0.178  train/test split     3 No       Preprocessor1…
#>  2 Yes             0.707   0.293  train/test split     4 Yes      Preprocessor1…
#>  3 No              0.270   0.730  train/test split     7 Yes      Preprocessor1…
#>  4 Yes             0.568   0.432  train/test split     8 Yes      Preprocessor1…
#>  5 Yes             0.554   0.446  train/test split    10 Yes      Preprocessor1…
#>  6 Yes             0.970   0.0297 train/test split    11 Yes      Preprocessor1…
#>  7 Yes             0.963   0.0367 train/test split    12 Yes      Preprocessor1…
#>  8 Yes             0.947   0.0528 train/test split    14 Yes      Preprocessor1…
#>  9 Yes             0.943   0.0573 train/test split    15 Yes      Preprocessor1…
#> 10 Yes             0.977   0.0227 train/test split    19 Yes      Preprocessor1…
#> # ℹ 1,412 more rows
…
