Tidymodeling
…
summary(hotel_rec)
#> # A tibble: 27 × 4
#>    variable                type      role      source  
#>    <chr>                   <list>    <chr>     <chr>   
#>  1 lead_time               <chr [2]> predictor original
#>  2 stays_in_weekend_nights <chr [2]> predictor original
#>  3 stays_in_week_nights    <chr [2]> predictor original
#>  4 adults                  <chr [2]> predictor original
#>  5 children                <chr [2]> predictor original
#>  6 babies                  <chr [2]> predictor original
#>  7 meal                    <chr [3]> predictor original
#>  8 country                 <chr [3]> predictor original
#>  9 market_segment          <chr [3]> predictor original
#> 10 distribution_channel    <chr [3]> predictor original
#> # ℹ 17 more rows
…
# Since we used `save_pred = TRUE`
lm_cv_pred <- collect_predictions(hotel_lm_res)
lm_cv_pred %>% print(n = 7)
#> # A tibble: 3,749 × 5
#>   .pred id      .row avg_price_per_room .config             
#>   <dbl> <chr>  <int>              <dbl> <chr>               
#> 1  75.1 Fold01    20                 40 Preprocessor1_Model1
#> 2  49.3 Fold01    28                 54 Preprocessor1_Model1
#> 3  64.9 Fold01    45                 50 Preprocessor1_Model1
#> 4  52.8 Fold01    49                 42 Preprocessor1_Model1
#> 5  48.6 Fold01    61                 49 Preprocessor1_Model1
#> 6  29.8 Fold01    66                 40 Preprocessor1_Model1
#> 7  36.9 Fold01    88                 49 Preprocessor1_Model1
#> # ℹ 3,742 more rows
…
set.seed(12)
grid <- 
  lgbm_wflow %>% 
  extract_parameter_set_dials() %>% 
  grid_space_filling(size = 25)

grid
#> # A tibble: 25 × 4
#>    trees learn_rate `agent hash` `company hash`
#>    <int>      <dbl>        <int>          <int>
#>  1     1   7.50e- 6          574            574
#>  2    84   1.78e- 5         2048           2298
#>  3   167   5.62e-10         1824            912
#>  4   250   4.22e- 5         3250            512
#>  5   334   1.78e- 8          512           2896
#>  6   417   1.33e- 3          322           1625
#>  7   500   1   e- 1         1448           1149
#>  8   584   1   e- 7         1290            256
#>  9   667   2.37e-10          456            724
#> 10   750   1.78e- 2          645            322
#> # ℹ 15 more rows
…
set.seed(12)
grid <- 
  lgbm_wflow %>% 
  extract_parameter_set_dials() %>% 
  grid_regular(levels = 4)

grid
#> # A tibble: 256 × 4
#>    trees   learn_rate `agent hash` `company hash`
#>    <int>        <dbl>        <int>          <int>
#>  1     1 0.0000000001          256            256
#>  2   667 0.0000000001          256            256
#>  3  1333 0.0000000001          256            256
#>  4  2000 0.0000000001          256            256
#>  5     1 0.0000001             256            256
#>  6   667 0.0000001             256            256
#>  7  1333 0.0000001             256            256
#>  8  2000 0.0000001             256            256
#>  9     1 0.0001                256            256
#> 10   667 0.0001                256            256
#> # ℹ 246 more rows
…
lgbm_param <- 
  lgbm_wflow %>% 
  extract_parameter_set_dials() %>% 
  update(trees = trees(c(1L, 100L)),
         learn_rate = learn_rate(c(-5, -1)))

set.seed(712)
grid <- 
  lgbm_param %>% 
  grid_space_filling(size = 25)

grid
#> # A tibble: 25 × 4
#>    trees learn_rate `agent hash` `company hash`
#>    <int>      <dbl>        <int>          <int>
#>  1     1  0.00147            574            574
#>  2     5  0.00215           2048           2298
#>  3     9  0.0000215         1824            912
#>  4    13  0.00316           3250            512
#>  5    17  0.0001             512           2896
#>  6    21  0.0147             322           1625
#>  7    25  0.1               1448           1149
#>  8    29  0.000215          1290            256
#>  9    34  0.0000147          456            724
#> 10    38  0.0464             645            322
#> # ℹ 15 more rows
…
collect_metrics(lgbm_res)
#> # A tibble: 50 × 11
#>    trees min_n    learn_rate `agent hash` `company hash` .metric .estimator   mean     n std_err .config              
#>    <int> <int>         <dbl>        <int>          <int> <chr>   <chr>       <dbl> <int>   <dbl> <chr>                
#>  1     1    17 0.00000000133           93             25 mae     standard   53.2      10 0.427   Preprocessor01_Model1
#>  2     1    17 0.00000000133           93             25 rsq     standard    0.810    10 0.00746 Preprocessor01_Model1
#>  3    84    27 0.0178                  80             69 mae     standard   20.0      10 0.293   Preprocessor02_Model1
#>  4    84    27 0.0178                  80             69 rsq     standard    0.897    10 0.00423 Preprocessor02_Model1
#>  5   167    19 0.00000133              12            143 mae     standard   53.2      10 0.426   Preprocessor03_Model1
#>  6   167    19 0.00000133              12            143 rsq     standard    0.811    10 0.00698 Preprocessor03_Model1
#>  7   250     2 0.000237                33             33 mae     standard   50.6      10 0.409   Preprocessor04_Model1
#>  8   250     2 0.000237                33             33 rsq     standard    0.815    10 0.00800 Preprocessor04_Model1
#>  9   334    36 0.0000000178            19             21 mae     standard   53.2      10 0.427   Preprocessor05_Model1
#> 10   334    36 0.0000000178            19             21 rsq     standard    0.807    10 0.00692 Preprocessor05_Model1
#> # ℹ 40 more rows
…
collect_metrics(lgbm_res, summarize = FALSE)
#> # A tibble: 500 × 10
#>    id     trees min_n    learn_rate `agent hash` `company hash` .metric .estimator .estimate .config              
#>    <chr>  <int> <int>         <dbl>        <int>          <int> <chr>   <chr>          <dbl> <chr>                
#>  1 Fold01     1    17 0.00000000133           93             25 mae     standard      51.8   Preprocessor01_Model1
#>  2 Fold01     1    17 0.00000000133           93             25 rsq     standard       0.821 Preprocessor01_Model1
#>  3 Fold02     1    17 0.00000000133           93             25 mae     standard      52.1   Preprocessor01_Model1
#>  4 Fold02     1    17 0.00000000133           93             25 rsq     standard       0.810 Preprocessor01_Model1
#>  5 Fold03     1    17 0.00000000133           93             25 mae     standard      52.2   Preprocessor01_Model1
#>  6 Fold03     1    17 0.00000000133           93             25 rsq     standard       0.783 Preprocessor01_Model1
#>  7 Fold04     1    17 0.00000000133           93             25 mae     standard      51.7   Preprocessor01_Model1
#>  8 Fold04     1    17 0.00000000133           93             25 rsq     standard       0.815 Preprocessor01_Model1
#>  9 Fold05     1    17 0.00000000133           93             25 mae     standard      55.2   Preprocessor01_Model1
#> 10 Fold05     1    17 0.00000000133           93             25 rsq     standard       0.847 Preprocessor01_Model1
#> # ℹ 490 more rows
…
